{
  "count": 114571,
  "next": "https://api.octopus.energy/v1/products/AGILE-18-02-21/electricity-tariffs/E-1R-AGILE-18-02-21-C/standard-unit-rates/?page=2",
  "previous": null,
  "results": [
    {
      "value_exc_vat": 7.96,
      "value_inc_vat": 8.358,
      "valid_from": "2023-07-15T21:30:00Z",
      "valid_to": "2023-07-15T22:00:00Z",
      "payment_method": null
    },
    {
      "value_exc_vat": 12.94,
      "value_inc_vat": 13.587,
      "valid_from": "2023-07-15T21:00:00Z",
      "valid_to": "2023-07-15T21:30:00Z",
      "payment_method": null
    },
    {
      "value_exc_vat": 12.32,
      "value_inc_vat": 12.936,
      "valid_from": "2023-07-15T20:30:00Z",
      "valid_to": "2023-07-15T21:00:00Z",
      "payment_method": null
    },
    {
      "value_exc_vat": 13.0,
      "value_inc_vat": 13.65,
      "valid_from": "2023-07-15T20:00:00Z",
      "valid_to": "2023-07-15T20:30:00Z",
      "payment_method": null
    },
    {
      "value_exc_vat": 12.56,
      "value_inc_vat": 13.188,
      "valid_from": "2023-07-15T19:30:00Z",
      "valid_to": "2023-07-15T20:00:00Z",
      "payment_method": null
    },
    {
      "value_exc_vat": 13.66,
      "value_inc_vat": 14.343,
      "valid_from": "2023-07-15T19:00:00Z",
      "valid_to": "2023-07-15T19:30:00Z",
      "payment_method": null
    },
    {
      "value_exc_vat": 13.76,
      "value_inc_vat": 14.448,
      "valid_from": "2023-07-15T18:30:00Z",
      "valid_to": "2023-07-15T19:00:00Z",
      "payment_method": null
    },
    {
      "value_exc_vat": 16.0,
      "value_inc_vat": 16.8,
      "valid_from": "2023-07-15T18:00:00Z",
      "valid_to": "2023-07-15T18:30:00Z",
      "payment_method": null
    },
    {
      "value_exc_vat": 24.34,
      "value_inc_vat": 25.557,
      "valid_from": "2023-07-15T17:30:00Z",
      "valid_to": "2023-07-15T18:00:00Z",
      "payment_method": null
    },
    {
      "value_exc_vat": 23.86,
      "value_inc_vat": 25.053,
      "valid_from": "2023-07-15T17:00:00Z",
      "valid_to": "2023-07-15T17:30:00Z",
      "payment_method": null
    },
    {
      "value_exc_vat": 22.14,
      "value_inc_vat": 23.247,
      "valid_from": "2023-07-15T16:30:00Z",
      "valid_to": "2023-07-15T17:00:00Z",
      "payment_method": null
    },
    {
      "value_exc_vat": 16.62,
      "value_inc_vat": 17.451,
      "valid_from": "2023-07-15T16:00:00Z",
      "valid_to": "2023-07-15T16:30:00Z",
      "payment_method": null
    },
    {
      "value_exc_vat": 14.1,
      "value_inc_vat": 14.805,
      "valid_from": "2023-07-15T15:30:00Z",
      "valid_to": "2023-07-15T16:00:00Z",
      "payment_method": null
    },
    {
      "value_exc_vat": 5.5,
      "value_inc_vat": 5.775,
      "valid_from": "2023-07-15T15:00:00Z",
      "valid_to": "2023-07-15T15:30:00Z",
      "payment_method": null
    },
    {
      "value_exc_vat": 1.6,
      "value_inc_vat": 1.68,
      "valid_from": "2023-07-15T14:30:00Z",
      "valid_to": "2023-07-15T15:00:00Z",
      "payment_method": null
    },
    {
      "value_exc_vat": 0.0,
      "value_inc_vat": 0.0,
      "valid_from": "2023-07-15T14:00:00Z",
      "valid_to": "2023-07-15T14:30:00Z",
      "payment_method": null
    },
    {
      "value_exc_vat": 3.45,
      "value_inc_vat": 3.6225,
      "valid_from": "2023-07-15T13:30:00Z",
      "valid_to": "2023-07-15T14:00:00Z",
      "payment_method": null
    },
    {
      "value_exc_vat": 4.62,
      "value_inc_vat": 4.851,
      "valid_from": "2023-07-15T13:00:00Z",
      "valid_to": "2023-07-15T13:30:00Z",
      "payment_method": null
    },
    {
      "value_exc_vat": 1.92,
      "value_inc_vat": 2.016,
      "valid_from": "2023-07-15T12:30:00Z",
      "valid_to": "2023-07-15T13:00:00Z",
      "payment_method": null
    },
    {
      "value_exc_vat": 4.62,
      "value_inc_vat": 4.851,
      "valid_from": "2023-07-15T12:00:00Z",
      "valid_to": "2023-07-15T12:30:00Z",
      "payment_method": null
    },
    {
      "value_exc_vat": 0.8,
      "value_inc_vat": 0.84,
      "valid_from": "2023-07-15T11:30:00Z",
      "valid_to": "2023-07-15T12:00:00Z",
      "payment_method": null
    },
    {
      "value_exc_vat": 2.89,
      "value_inc_vat": 3.0345,
      "valid_from": "2023-07-15T11:00:00Z",
      "valid_to": "2023-07-15T11:30:00Z",
      "payment_method": null
    },
    {
      "value_exc_vat": -2.0,
      "value_inc_vat": -2.1,
      "valid_from": "2023-07-15T10:30:00Z",
      "valid_to": "2023-07-15T11:00:00Z",
      "payment_method": null
    },
    {
      "value_exc_vat": 0.6,
      "value_inc_vat": 0.63,
      "valid_from": "2023-07-15T10:00:00Z",
      "valid_to": "2023-07-15T10:30:00Z",
      "payment_method": null
    },
    {
      "value_exc_vat": -2.0,
      "value_inc_vat": -2.1,
      "valid_from": "2023-07-15T09:30:00Z",
      "valid_to": "2023-07-15T10:00:00Z",
      "payment_method": null
    },
    {
      "value_exc_vat": -0.2,
      "value_inc_vat": -0.21,
      "valid_from": "2023-07-15T09:00:00Z",
      "valid_to": "2023-07-15T09:30:00Z",
      "payment_method": null
    },
    {
      "value_exc_vat": 0.4,
      "value_inc_vat": 0.42,
      "valid_from": "2023-07-15T08:30:00Z",
      "valid_to": "2023-07-15T09:00:00Z",
      "payment_method": null
    },
    {
      "value_exc_vat": 0.0,
      "value_inc_vat": 0.0,
      "valid_from": "2023-07-15T08:00:00Z",
      "valid_to": "2023-07-15T08:30:00Z",
      "payment_method": null
    },
    {
      "value_exc_vat": 6.36,
      "value_inc_vat": 6.678,
      "valid_from": "2023-07-15T07:30:00Z",
      "valid_to": "2023-07-15T08:00:00Z",
      "payment_method": null
    },
    {
      "value_exc_vat": 2.78,
      "value_inc_vat": 2.919,
      "valid_from": "2023-07-15T07:00:00Z",
      "valid_to": "2023-07-15T07:30:00Z",
      "payment_method": null
    },
    {
      "value_exc_vat": 7.92,
      "value_inc_vat": 8.316,
      "valid_from": "2023-07-15T06:30:00Z",
      "valid_to": "2023-07-15T07:00:00Z",
      "payment_method": null
    },
    {
      "value_exc_vat": 3.28,
      "value_inc_vat": 3.444,
      "valid_from": "2023-07-15T06:00:00Z",
      "valid_to": "2023-07-15T06:30:00Z",
      "payment_method": null
    },
    {
      "value_exc_vat": 6.0,
      "value_inc_vat": 6.3,
      "valid_from": "2023-07-15T05:30:00Z",
      "valid_to": "2023-07-15T06:00:00Z",
      "payment_method": null
    },
    {
      "value_exc_vat": 3.76,
      "value_inc_vat": 3.948,
      "valid_from": "2023-07-15T05:00:00Z",
      "valid_to": "2023-07-15T05:30:00Z",
      "payment_method": null
    },
    {
      "value_exc_vat": 2.8,
      "value_inc_vat": 2.94,
      "valid_from": "2023-07-15T04:30:00Z",
      "valid_to": "2023-07-15T05:00:00Z",
      "payment_method": null
    },
    {
      "value_exc_vat": 2.8,
      "value_inc_vat": 2.94,
      "valid_from": "2023-07-15T04:00:00Z",
      "valid_to": "2023-07-15T04:30:00Z",
      "payment_method": null
    },
    {
      "value_exc_vat": 1.4,
      "value_inc_vat": 1.47,
      "valid_from": "2023-07-15T03:30:00Z",
      "valid_to": "2023-07-15T04:00:00Z",
      "payment_method": null
    },
    {
      "value_exc_vat": 2.4,
      "value_inc_vat": 2.52,
      "valid_from": "2023-07-15T03:00:00Z",
      "valid_to": "2023-07-15T03:30:00Z",
      "payment_method": null
    },
    {
      "value_exc_vat": 1.4,
      "value_inc_vat": 1.47,
      "valid_from": "2023-07-15T02:30:00Z",
      "valid_to": "2023-07-15T03:00:00Z",
      "payment_method": null
    },
    {
      "value_exc_vat": 1.4,
      "value_inc_vat": 1.47,
      "valid_from": "2023-07-15T02:00:00Z",
      "valid_to": "2023-07-15T02:30:00Z",
      "payment_method": null
    },
    {
      "value_exc_vat": 2.4,
      "value_inc_vat": 2.52,
      "valid_from": "2023-07-15T01:30:00Z",
      "valid_to": "2023-07-15T02:00:00Z",
      "payment_method": null
    },
    {
      "value_exc_vat": 2.4,
      "value_inc_vat": 2.52,
      "valid_from": "2023-07-15T01:00:00Z",
      "valid_to": "2023-07-15T01:30:00Z",
      "payment_method": null
    },
    {
      "value_exc_vat": 4.52,
      "value_inc_vat": 4.746,
      "valid_from": "2023-07-15T00:30:00Z",
      "valid_to": "2023-07-15T01:00:00Z",
      "payment_method": null
    },
    {
      "value_exc_vat": 4.62,
      "value_inc_vat": 4.851,
      "valid_from": "2023-07-15T00:00:00Z",
      "valid_to": "2023-07-15T00:30:00Z",
      "payment_method": null
    },
    {
      "value_exc_vat": 6.5,
      "value_inc_vat": 6.825,
      "valid_from": "2023-07-14T23:30:00Z",
      "valid_to": "2023-07-15T00:00:00Z",
      "payment_method": null
    },
    {
      "value_exc_vat": 8.96,
      "value_inc_vat": 9.408,
      "valid_from": "2023-07-14T23:00:00Z",
      "valid_to": "2023-07-14T23:30:00Z",
      "payment_method": null
    },
    {
      "value_exc_vat": 13.12,
      "value_inc_vat": 13.776,
      "valid_from": "2023-07-14T22:30:00Z",
      "valid_to": "2023-07-14T23:00:00Z",
      "payment_method": null
    },
    {
      "value_exc_vat": 15.0,
      "value_inc_vat": 15.75,
      "valid_from": "2023-07-14T22:00:00Z",
      "valid_to": "2023-07-14T22:30:00Z",
      "payment_method": null
    },
    {
      "value_exc_vat": 11.6,
      "value_inc_vat": 12.18,
      "valid_from": "2023-07-14T21:30:00Z",
      "valid_to": "2023-07-14T22:00:00Z",
      "payment_method": null
    },
    {
      "value_exc_vat": 13.0,
      "value_inc_vat": 13.65,
      "valid_from": "2023-07-14T21:00:00Z",
      "valid_to": "2023-07-14T21:30:00Z",
      "payment_method": null
    },
    {
      "value_exc_vat": 14.2,
      "value_inc_vat": 14.91,
      "valid_from": "2023-07-14T20:30:00Z",
      "valid_to": "2023-07-14T21:00:00Z",
      "payment_method": null
    },
    {
      "value_exc_vat": 15.2,
      "value_inc_vat": 15.96,
      "valid_from": "2023-07-14T20:00:00Z",
      "valid_to": "2023-07-14T20:30:00Z",
      "payment_method": null
    },
    {
      "value_exc_vat": 13.2,
      "value_inc_vat": 13.86,
      "valid_from": "2023-07-14T19:30:00Z",
      "valid_to": "2023-07-14T20:00:00Z",
      "payment_method": null
    },
    {
      "value_exc_vat": 14.96,
      "value_inc_vat": 15.708,
      "valid_from": "2023-07-14T19:00:00Z",
      "valid_to": "2023-07-14T19:30:00Z",
      "payment_method": null
    },
    {
      "value_exc_vat": 15.4,
      "value_inc_vat": 16.17,
      "valid_from": "2023-07-14T18:30:00Z",
      "valid_to": "2023-07-14T19:00:00Z",
      "payment_method": null
    },
    {
      "value_exc_vat": 17.6,
      "value_inc_vat": 18.48,
      "valid_from": "2023-07-14T18:00:00Z",
      "valid_to": "2023-07-14T18:30:00Z",
      "payment_method": null
    },
    {
      "value_exc_vat": 24.54,
      "value_inc_vat": 25.767,
      "valid_from": "2023-07-14T17:30:00Z",
      "valid_to": "2023-07-14T18:00:00Z",
      "payment_method": null
    },
    {
      "value_exc_vat": 26.52,
      "value_inc_vat": 27.846,
      "valid_from": "2023-07-14T17:00:00Z",
      "valid_to": "2023-07-14T17:30:00Z",
      "payment_method": null
    },
    {
      "value_exc_vat": 25.34,
      "value_inc_vat": 26.607,
      "valid_from": "2023-07-14T16:30:00Z",
      "valid_to": "2023-07-14T17:00:00Z",
      "payment_method": null
    },
    {
      "value_exc_vat": 25.8,
      "value_inc_vat": 27.09,
      "valid_from": "2023-07-14T16:00:00Z",
      "valid_to": "2023-07-14T16:30:00Z",
      "payment_method": null
    },
    {
      "value_exc_vat": 24.2,
      "value_inc_vat": 25.41,
      "valid_from": "2023-07-14T15:30:00Z",
      "valid_to": "2023-07-14T16:00:00Z",
      "payment_method": null
    },
    {
      "value_exc_vat": 22.6,
      "value_inc_vat": 23.73,
      "valid_from": "2023-07-14T15:00:00Z",
      "valid_to": "2023-07-14T15:30:00Z",
      "payment_method": null
    },
    {
      "value_exc_vat": 10.6,
      "value_inc_vat": 11.13,
      "valid_from": "2023-07-14T14:30:00Z",
      "valid_to": "2023-07-14T15:00:00Z",
      "payment_method": null
    },
    {
      "value_exc_vat": 11.6,
      "value_inc_vat": 12.18,
      "valid_from": "2023-07-14T14:00:00Z",
      "valid_to": "2023-07-14T14:30:00Z",
      "payment_method": null
    },
    {
      "value_exc_vat": 10.0,
      "value_inc_vat": 10.5,
      "valid_from": "2023-07-14T13:30:00Z",
      "valid_to": "2023-07-14T14:00:00Z",
      "payment_method": null
    },
    {
      "value_exc_vat": 12.16,
      "value_inc_vat": 12.768,
      "valid_from": "2023-07-14T13:00:00Z",
      "valid_to": "2023-07-14T13:30:00Z",
      "payment_method": null
    },
    {
      "value_exc_vat": 12.64,
      "value_inc_vat": 13.272,
      "valid_from": "2023-07-14T12:30:00Z",
      "valid_to": "2023-07-14T13:00:00Z",
      "payment_method": null
    },
    {
      "value_exc_vat": 14.38,
      "value_inc_vat": 15.099,
      "valid_from": "2023-07-14T12:00:00Z",
      "valid_to": "2023-07-14T12:30:00Z",
      "payment_method": null
    },
    {
      "value_exc_vat": 13.44,
      "value_inc_vat": 14.112,
      "valid_from": "2023-07-14T11:30:00Z",
      "valid_to": "2023-07-14T12:00:00Z",
      "payment_method": null
    },
    {
      "value_exc_vat": 15.64,
      "value_inc_vat": 16.422,
      "valid_from": "2023-07-14T11:00:00Z",
      "valid_to": "2023-07-14T11:30:00Z",
      "payment_method": null
    },
    {
      "value_exc_vat": 15.52,
      "value_inc_vat": 16.296,
      "valid_from": "2023-07-14T10:30:00Z",
      "valid_to": "2023-07-14T11:00:00Z",
      "payment_method": null
    },
    {
      "value_exc_vat": 14.48,
      "value_inc_vat": 15.204,
      "valid_from": "2023-07-14T10:00:00Z",
      "valid_to": "2023-07-14T10:30:00Z",
      "payment_method": null
    },
    {
      "value_exc_vat": 14.4,
      "value_inc_vat": 15.12,
      "valid_from": "2023-07-14T09:30:00Z",
      "valid_to": "2023-07-14T10:00:00Z",
      "payment_method": null
    },
    {
      "value_exc_vat": 12.98,
      "value_inc_vat": 13.629,
      "valid_from": "2023-07-14T09:00:00Z",
      "valid_to": "2023-07-14T09:30:00Z",
      "payment_method": null
    },
    {
      "value_exc_vat": 14.5,
      "value_inc_vat": 15.225,
      "valid_from": "2023-07-14T08:30:00Z",
      "valid_to": "2023-07-14T09:00:00Z",
      "payment_method": null
    },
    {
      "value_exc_vat": 14.64,
      "value_inc_vat": 15.372,
      "valid_from": "2023-07-14T08:00:00Z",
      "valid_to": "2023-07-14T08:30:00Z",
      "payment_method": null
    },
    {
      "value_exc_vat": 17.42,
      "value_inc_vat": 18.291,
      "valid_from": "2023-07-14T07:30:00Z",
      "valid_to": "2023-07-14T08:00:00Z",
      "payment_method": null
    },
    {
      "value_exc_vat": 13.4,
      "value_inc_vat": 14.07,
      "valid_from": "2023-07-14T07:00:00Z",
      "valid_to": "2023-07-14T07:30:00Z",
      "payment_method": null
    },
    {
      "value_exc_vat": 19.52,
      "value_inc_vat": 20.496,
      "valid_from": "2023-07-14T06:30:00Z",
      "valid_to": "2023-07-14T07:00:00Z",
      "payment_method": null
    },
    {
      "value_exc_vat": 12.8,
      "value_inc_vat": 13.44,
      "valid_from": "2023-07-14T06:00:00Z",
      "valid_to": "2023-07-14T06:30:00Z",
      "payment_method": null
    },
    {
      "value_exc_vat": 19.6,
      "value_inc_vat": 20.58,
      "valid_from": "2023-07-14T05:30:00Z",
      "valid_to": "2023-07-14T06:00:00Z",
      "payment_method": null
    },
    {
      "value_exc_vat": 15.18,
      "value_inc_vat": 15.939,
      "valid_from": "2023-07-14T05:00:00Z",
      "valid_to": "2023-07-14T05:30:00Z",
      "payment_method": null
    },
    {
      "value_exc_vat": 13.6,
      "value_inc_vat": 14.28,
      "valid_from": "2023-07-14T04:30:00Z",
      "valid_to": "2023-07-14T05:00:00Z",
      "payment_method": null
    },
    {
      "value_exc_vat": 10.6,
      "value_inc_vat": 11.13,
      "valid_from": "2023-07-14T04:00:00Z",
      "valid_to": "2023-07-14T04:30:00Z",
      "payment_method": null
    },
    {
      "value_exc_vat": 13.4,
      "value_inc_vat": 14.07,
      "valid_from": "2023-07-14T03:30:00Z",
      "valid_to": "2023-07-14T04:00:00Z",
      "payment_method": null
    },
    {
      "value_exc_vat": 13.43,
      "value_inc_vat": 14.1015,
      "valid_from": "2023-07-14T03:00:00Z",
      "valid_to": "2023-07-14T03:30:00Z",
      "payment_method": null
    },
    {
      "value_exc_vat": 11.78,
      "value_inc_vat": 12.369,
      "valid_from": "2023-07-14T02:30:00Z",
      "valid_to": "2023-07-14T03:00:00Z",
      "payment_method": null
    },
    {
      "value_exc_vat": 12.8,
      "value_inc_vat": 13.44,
      "valid_from": "2023-07-14T02:00:00Z",
      "valid_to": "2023-07-14T02:30:00Z",
      "payment_method": null
    },
    {
      "value_exc_vat": 10.4,
      "value_inc_vat": 10.92,
      "valid_from": "2023-07-14T01:30:00Z",
      "valid_to": "2023-07-14T02:00:00Z",
      "payment_method": null
    },
    {
      "value_exc_vat": 12.4,
      "value_inc_vat": 13.02,
      "valid_from": "2023-07-14T01:00:00Z",
      "valid_to": "2023-07-14T01:30:00Z",
      "payment_method": null
    },
    {
      "value_exc_vat": 14.48,
      "value_inc_vat": 15.204,
      "valid_from": "2023-07-14T00:30:00Z",
      "valid_to": "2023-07-14T01:00:00Z",
      "payment_method": null
    },
    {
      "value_exc_vat": 15.0,
      "value_inc_vat": 15.75,
      "valid_from": "2023-07-14T00:00:00Z",
      "valid_to": "2023-07-14T00:30:00Z",
      "payment_method": null
    },
    {
      "value_exc_vat": 15.96,
      "value_inc_vat": 16.758,
      "valid_from": "2023-07-13T23:30:00Z",
      "valid_to": "2023-07-14T00:00:00Z",
      "payment_method": null
    },
    {
      "value_exc_vat": 16.0,
      "value_inc_vat": 16.8,
      "valid_from": "2023-07-13T23:00:00Z",
      "valid_to": "2023-07-13T23:30:00Z",
      "payment_method": null
    },
    {
      "value_exc_vat": 16.8,
      "value_inc_vat": 17.64,
      "valid_from": "2023-07-13T22:30:00Z",
      "valid_to": "2023-07-13T23:00:00Z",
      "payment_method": null
    },
    {
      "value_exc_vat": 19.68,
      "value_inc_vat": 20.664,
      "valid_from": "2023-07-13T22:00:00Z",
      "valid_to": "2023-07-13T22:30:00Z",
      "payment_method": null
    },
    {
      "value_exc_vat": 17.76,
      "value_inc_vat": 18.648,
      "valid_from": "2023-07-13T21:30:00Z",
      "valid_to": "2023-07-13T22:00:00Z",
      "payment_method": null
    },
    {
      "value_exc_vat": 22.0,
      "value_inc_vat": 23.1,
      "valid_from": "2023-07-13T21:00:00Z",
      "valid_to": "2023-07-13T21:30:00Z",
      "payment_method": null
    },
    {
      "value_exc_vat": 21.34,
      "value_inc_vat": 22.407,
      "valid_from": "2023-07-13T20:30:00Z",
      "valid_to": "2023-07-13T21:00:00Z",
      "payment_method": null
    },
    {
      "value_exc_vat": 22.34,
      "value_inc_vat": 23.457,
      "valid_from": "2023-07-13T20:00:00Z",
      "valid_to": "2023-07-13T20:30:00Z",
      "payment_method": null
    }
  ]
}